Statins_match
…
Joining, by = "drug_name"

final_drugs %>% 
  anti_join(pbs_drugs) %>%
  {.} -> drugs_to_match

Joining, by = "drug_name"

drugs_to_match

# A tibble: 26 x 2
   category            drug_name                                          
   <fct>               <chr>                                              
 1 Angiogenesis inhib… CABOZANTINIB MALATE                                
 2 Angiogenesis inhib… IMATINIB MESYLATE                                  
 3 Angiogenesis inhib… PAZOPANIB HYDROCHLORIDE                            
 4 Angiogenesis inhib… PONATINIB HYDROCHLORIDE                            
 5 Angiogenesis inhib… REGORAFENIB                                        
 6 Angiogenesis inhib… SORAFENIB TOSYLATE                                 
 7 Angiogenesis inhib… SUNITINIB MALATE                                   
 8 Antidepressants     SNRIS (I.E., DESVENLAFAXINE, DULOXETINE HYDROCHLOR…
 9 Antidepressants     TCAS (I.E., AMITRIPTYLINE HYDROCHLORIDE, IMIPRAMIN…
10 Antidepressants     MAOIS (I.E., PHENELZINE SULFATE, RASAGILINE, SELEG…
# ... with 16 more rows
…
